pratica1/simulation/qsim/pratica1.msim.vcd
$comment
	File created using the following command:
		vcd file pratica1.msim.vcd -direction
$end
$date
	Tue Oct 17 11:50:38 2023
$end
$version
	ModelSim Version 2020.1
$end
$timescale
	1ps
$end

$scope module pratica1_vhd_vec_tst $end
$var wire 1 ! clk $end
$var wire 1 " S [0] $end
$var wire 1 # S [1] $end
$var wire 1 $ S [2] $end

$scope module i1 $end
$var wire 1 % gnd $end
$var wire 1 & vcc $end
$var wire 1 ' unknown $end
$var wire 1 ( devoe $end
$var wire 1 ) devclrn $end
$var wire 1 * devpor $end
$var wire 1 + ww_devoe $end
$var wire 1 , ww_devclrn $end
$var wire 1 - ww_devpor $end
$var wire 1 . ww_clk $end
$var wire 1 / ww_S [0] $end
$var wire 1 0 ww_S [1] $end
$var wire 1 1 ww_S [2] $end
$var wire 1 2 \S[2]~output_o\ $end
$var wire 1 3 \S[1]~output_o\ $end
$var wire 1 4 \S[0]~output_o\ $end
$var wire 1 5 \clk~input_o\ $end
$var wire 1 6 \y.S1~0_combout\ $end
$var wire 1 7 \y.S1~q\ $end
$var wire 1 8 \y.S2~q\ $end
$var wire 1 9 \y.S3~q\ $end
$var wire 1 : \y.S4~q\ $end
$var wire 1 ; \y.S5~q\ $end
$var wire 1 < \y.S0~0_combout\ $end
$var wire 1 = \y.S0~q\ $end
$var wire 1 > \WideOr2~combout\ $end
$var wire 1 ? \S[2]~reg0_q\ $end
$var wire 1 @ \WideOr1~combout\ $end
$var wire 1 A \S[1]~reg0_q\ $end
$var wire 1 B \WideOr0~combout\ $end
$var wire 1 C \S[0]~reg0_q\ $end
$var wire 1 D \ALT_INV_y.S5~q\ $end
$var wire 1 E \ALT_INV_y.S1~q\ $end
$var wire 1 F \ALT_INV_y.S4~q\ $end
$var wire 1 G \ALT_INV_y.S2~q\ $end
$var wire 1 H \ALT_INV_y.S0~q\ $end
$upscope $end
$upscope $end
$enddefinitions $end
#0
$dumpvars
0!
0%
1&
x'
1(
1)
1*
1+
1,
1-
0.
02
03
04
05
16
07
08
09
0:
0;
1<
0=
0>
0?
1@
0A
0B
0C
1D
1E
1F
1G
1H
0/
00
01
0"
0#
0$
$end
#80000
1!
1.
15
17
1=
1A
0H
0E
06
1>
13
10
1#
#160000
0!
0.
05
#240000
1!
1.
15
07
18
1?
0G
1E
0@
1B
0>
12
11
1$
#320000
0!
0.
05
#400000
1!
1.
15
08
19
0?
0A
1C
1G
1>
14
03
02
1/
00
01
0$
0#
1"
#480000
0!
0.
05
#560000
1!
1.
15
09
1:
1?
0F
0>
1@
12
11
1$
#640000
0!
0.
05
#720000
1!
1.
15
0:
1;
0?
1A
0D
1F
1>
0@
0<
0B
13
02
10
01
0$
1#
#800000
0!
0.
05
#880000
1!
1.
15
0;
0=
1?
0A
0C
1H
1D
1<
16
0>
1@
04
03
12
0/
00
11
1$
0#
0"
#960000
0!
0.
05
